Title,Class,Level,Type,Scale,Image,Quantity,Spark,Description,Keep,Trigger,TriggerAction,Print,Public,id
Spark Converter,Tad,1,Power,0,https://cdn.icon-icons.com/icons2/390/PNG/512/tesla-turret_38799.png,1,,^Discard^**Discard 1**. ^Draw^**Draw X** and receive ^dX^ equal to the ^Spark^ on the card **Discarded**,FALSE,,,NO,NO,tad1
Tinker,Tad,1,Power,0,https://cdn.icon-icons.com/icons2/390/PNG/512/tesla-turret_38799.png,1,,^Tuck^**Tuck** ^spX^ Cards from your hand.,FALSE,,,NO,NO,tad2
(Bot) Laser Turret,Tad,1,Card,0,https://cdn.icon-icons.com/icons2/390/PNG/512/tesla-turret_38799.png,1,0,"^KeepTap^**Keep** = ^Tuck^**Tuck 1** <br/> (Summon) **3** Block, 0 HP, **X** ATK (R3, Line)",TRUE,Tuck,"You may command this Summon to deal ^dX^ equal to half the^Spark^in this Stack. If this damage dealt is **6** or more, immediately ^Cast^ this **Stack**into your **Discard** pile.",NO,NO,tad3
(Bot) Mechasuit,Tad,1,Card,0,https://cdn2.iconfinder.com/data/icons/mech-mecha-robot/152/mech-robot-5-512.png,1,0,^KeepTap^**Keep** = ^Tuck^**Tuck 1**,TRUE,Tuck,"Gain ^bX^ equal to half the^Spark^in this Stack. If the Block gained is **6** or more, immediately ^Cast^ this **Stack**into your **Discard** pile.",NO,NO,tad4
Frogged Leap,Tad,1,Card,0,https://thumbs.dreamstime.com/b/jumping-frog-icon-jumping-frog-icon-vector-design-160323337.jpg,1,1,^Jump^ exactly **3** spaces in a Line.,FALSE,,,NO,NO,tad5
Greased Wheels,Tad,1,Card,0,https://thumbs.dreamstime.com/b/cutout-silhouette-oiler-dripping-drop-oil-lubricating-two-spinning-gears-outline-icon-motor-oil-black-illustration-178163633.jpg,1,2,Choose any **Player**or **Ally** within (R2) to ^Move^ 0-2,FALSE,Loop,"If you ^Tuck^ **1**, ^Loop^ this card.",NO,NO,tad6
Medium Battery,Tad,1,Card,0,https://cdn0.iconfinder.com/data/icons/waste-recycling/64/49_metal-can-waste-recycling-scrap-512.png,2,3,"When **Tucked** ^Tuck^, ^Draw^**Draw 1**",FALSE,,,NO,NO,tad7
Piston Knucklers,Tad,1,Card,0,https://cdn-icons-png.flaticon.com/512/1505/1505657.png,1,1,"(R2, **Pierce**) ^d2^ ^d2^.You may choose whether this attack has **Pierce**.",FALSE,,,NO,NO,tad8
Port-A-Block,Tad,1,Card,0,https://cdn.dribbble.com/users/221912/screenshots/1691022/frog.jpg,1,1,"(R3, Lob) Select any ******Ally****** or **Enemy** and give them 1-3 Block",FALSE,,,NO,NO,tad9
Remote Control,Tad,1,Card,0,https://static.thenounproject.com/png/68497-200.png,1,1,^Cast^ **1**. Pick (1+^spX^) ****Allies**** within (R2). ^Move^ them **X** spaces equal to half the height of that Stack.,FALSE,,,NO,NO,tad10
Scrap Battery,Tad,1,Card,0,https://cdn0.iconfinder.com/data/icons/waste-recycling/64/49_metal-can-waste-recycling-scrap-512.png,2,2,,FALSE,,,NO,NO,tad11
Scrap Gun,Tad,1,Card,0,https://icon-library.com/images/junk-icon/junk-icon-0.jpg,1,2,"^Cast^ **1**. (AOE trio, R1-3) = ^dX^ equal to half the^Spark^in the **Stack**^Cast^.",FALSE,,,NO,NO,tad12
Shock Treatment,Tad,1,Card,0,https://static.thenounproject.com/png/50824-200.png,1,2,"(R2) Select an **Enemy** with up to (3+^spX^) Block, then ^pX^ equal to double their Block",FALSE,,,NO,NO,tad13
Sock-It Wrench,Tad,1,Card,0,https://cdn.w600.comps.canstockphoto.com/socket-wrench-set-outline-vector-illustration_csp19901524.jpg,2,1,"(R1) Steal 0-2 ^b^, then ^d1^. If the **Target** is an **Ally**, then give them ^b3^ instead.",FALSE,,,NO,NO,tad14
Tad's Trusty Taser,Tad,1,Card,0,https://cdn1.vectorstock.com/i/1000x1000/04/85/taser-icon-in-black-style-isolated-on-white-vector-13530485.jpg,1,1,"^KeepTap^**Keep** = Give ^b1-2^ to any **Unit** within (R2), including yourself",TRUE,Reaction,"(R2) Select an **Enemy** with Block equal to or double your own Block, then Stun them.",NO,NO,tad15
(Bot) Noxious Drone,Tad,2,Power,0,https://static.thenounproject.com/png/3168455-200.png,2,0,"(Summon) **3** Block, 0 HP, **X** ATK (R3, Line).^Tuck^ **1** to ^Keep^.",FALSE,Tuck,"Control this Bot to ^Jump^ **X** Spaces equal to the ^Spark^ in this stack, ^p2^ each time it passes over an enemy. If this **Stack** has 8 or more ^Spark^, immediately ^Cast^ this **Stack**",NO,NO,tad16
Drill Gun,Tad,2,Card,0,https://t3.ftcdn.net/jpg/00/54/75/56/360_F_54755691_2TIdE1de71Danlva2YDYH7nHLwfZW6UP.jpg,2,2,"(R5, Line) ^d3^ and **Push** the **Target** to the attack's furthest range if possible.",FALSE,,,NO,NO,tad17
Dumpster Dive,Tad,2,Card,0,https://static.thenounproject.com/png/171890-200.png,2,1,"^Jump^ **2**. If you are now next to an **Obstacle**, destory it and Choose **1** from your **Discard** Pile.",FALSE,,,NO,NO,tad18
Grappling Hook,Tad,2,Card,0,https://cdn-icons-png.flaticon.com/512/3604/3604841.png,2,0,"^Line^ **5** Select a **Obstacle** or Unit in range <br/> ^Move^ in a Line until you are adjacent to it <br/>[*] = ^4^ to the **Target**",FALSE,,,NO,NO,tad19
MegaMagnet,Tad,2,Card,0,https://openclipart.org/image/800px/73849,1,1,Select (P) **Unit**s within (2+^spX^) Range and Pull **X** on each **Unit** equal to their Block,FALSE,,,NO,NO,tad20
Quick Fix,Tad,2,Card,0,https://p.kindpng.com/picc/s/489-4890823_adhesive-tape-clip-art-adhesive-tape-clipart-hd.png,2,,^Tuck^ the top card of your **Draw** Pile in any Stack. ^bX^ equal to that card's ^Spark^,FALSE,,,NO,NO,tad21
Remote Detonation,Tad,2,Card,0,,1,1,"^Cast^ **1**. If this was a Summon, then ^dX^ to all enemies within (R2) equal to the height of the Stack.",FALSE,,,NO,NO,tad22
Spring Trap,Tad,2,Card,0,https://cdn-icons-png.flaticon.com/512/1167/1167670.png,2,1,(R3) Choose any **Unit**. Force them to ^Jump^ **2** in the direction they are facing.,FALSE,,,NO,NO,tad23
Unstable Converter,Tad,2,Card,0,https://cdn4.iconfinder.com/data/icons/waste-sorting/66/17-512.png,2,4,^KeepTap^**Keep** = Lose **1** HP,TRUE,Cast,Return this **Stack**to your hand.,NO,NO,tad24
(Bot) Sentient Sawblade,Tad,3,Power,0,https://cdn4.iconfinder.com/data/icons/smile-rounded-1/512/xxx001-512.png,3,,"(Summon) **5** Block, 0 HP. You may summon this onto any unoccupied space within (R5, Line).^Tuck^ **1** to ^Keep^.",FALSE,,"Jump this Bot **X** Spaces in a Line and ^dX^ to all enemies adjacent to (or under) this bot's movement. If this **Stack**has 8 or more Spark, immediately ^Cast^ this Stack.",NO,NO,tad25
Defribrillator,Tad,3,Card,0,https://cdn-icons-png.flaticon.com/512/790/790141.png,3,,,TRUE,Reaction,Choose any **Player**in (R2). Remove up to (3+[*]) Block from them and Heal them for double that amount.,NO,NO,tad26
Shock Collar,Tad,3,Card,0,https://www.caninejournal.com/wp-content/uploads/shock-collar-icon-png.png,3,1,"Gain **3** **Taunt**. Until the start of your next turn, ^p4^ to any **Enemy** each time they Hit you.[*] = They also receive **1** Weak.",FALSE,,,NO,NO,tad27
Dismantle,Tad,,Card,0,https://static.thenounproject.com/png/107433-200.png,1,3,"^Cast^ **1**, then ^Tuck^ (1+^spX^) cards from that **Stack**into one other Stack.",FALSE,,,NO,NO,tad28
Sparkplug,Tad,,Card,0,,2,0,,FALSE,,,NO,NO,tad29